{"moduleName":"SystemInfo","level":"info","message":"[ 'Hub version: 1.2.0' ]","timestamp":"2018-10-30T22:14:24.868Z"}
{"moduleName":"SystemInfo","level":"info","message":"[ 'Hub path: /tmp/.mount_UnityHX1VTU1/unityhub' ]","timestamp":"2018-10-30T22:14:24.870Z"}
{"moduleName":"RestEventRouter","level":"info","message":"[ 'adding route path: license.change' ]","timestamp":"2018-10-30T22:14:24.888Z"}
{"moduleName":"RestEventRouter","level":"info","message":"[ 'adding route path: project.opened' ]","timestamp":"2018-10-30T22:14:24.888Z"}
{"moduleName":"RestEventRouter","level":"info","message":"[ 'adding route path: project.create' ]","timestamp":"2018-10-30T22:14:24.888Z"}
{"moduleName":"RestEventRouter","level":"info","message":"[ 'adding route path: project.createTemp' ]","timestamp":"2018-10-30T22:14:24.889Z"}
{"moduleName":"RestEventRouter","level":"info","message":"[ 'adding route path: project.openedFromCloud' ]","timestamp":"2018-10-30T22:14:24.889Z"}
{"moduleName":"RestEventRouter","level":"info","message":"[ 'adding route path: main-window.change' ]","timestamp":"2018-10-30T22:14:24.889Z"}
{"moduleName":"IpcControllerHelper","level":"info","message":"[ 'Found the following controllers in path: [\"auth\",\"config\",\"health\",\"hubProtocol\",\"license\",\"localProject\",\"window\"]' ]","timestamp":"2018-10-30T22:14:24.894Z"}
{"moduleName":"SystemInfo","level":"info","message":"[ 'Intel(R) Core(TM) i7-6800K CPU @ 3.40GHz; Linux (4.18.16-200.fc28.x86_64)' ]","timestamp":"2018-10-30T22:14:24.894Z"}
{"moduleName":"App","level":"info","message":"[ 'Checking arguments for Windows custom URI scheme' ]","timestamp":"2018-10-30T22:14:25.062Z"}
{"moduleName":"App","level":"info","message":"[ 'No custom URI argument found' ]","timestamp":"2018-10-30T22:14:25.062Z"}
{"moduleName":"HubSettings","level":"info","message":"[ { cloudEnvironment: 'production',\n    accessTokenIntervalPeriod: 5000,\n    servicesUrlInterval: 900000,\n    hubConfigInterval: 3600000,\n    releasesRefreshInterval: 3600000,\n    recentProjectInterval: 60000,\n    downloadClusterInterval: 1000,\n    downloadEditorInterval: 1000,\n    refreshTokenValidity: 2592000000,\n    checkForUpdateInterval: 43200000,\n    sendAnalyticsEventsInterval: 60000,\n    maxSizeForAnalyticsQueue: 500,\n    downloadRequestTimeout: 30000,\n    connectivityDnsLookupHostname: 'cloud.unity3d.com',\n    globalConfigFolder: '/usr/share/unity3d/config' } ]","timestamp":"2018-10-30T22:14:25.076Z"}
{"moduleName":"CloudConfig","level":"info","message":"[ 'Cloud Config endpoint: https://public-cdn.cloud.unity3d.com/config/production' ]","timestamp":"2018-10-30T22:14:25.076Z"}
{"moduleName":"LocalConfig","level":"info","message":"[ 'Local Config endpoint: https://public-cdn.cloud.unity3d.com/hub/prod/hubConfig.json' ]","timestamp":"2018-10-30T22:14:25.375Z"}
{"moduleName":"AutoUpdater","level":"info","message":"[ 'Init' ]","timestamp":"2018-10-30T22:14:25.376Z"}
{"moduleName":"AutoUpdater","level":"info","message":"[ 'Look for Hub updates from app-update.yml -> url' ]","timestamp":"2018-10-30T22:14:25.377Z"}
{"moduleName":"AutoUpdater","level":"info","message":"[ 'Checking for hub updates' ]","timestamp":"2018-10-30T22:14:25.377Z"}
{"moduleName":"TokenManager","level":"info","message":"[ 'Init' ]","timestamp":"2018-10-30T22:14:25.426Z"}
{"moduleName":"AutoUpdater:EventHandler","level":"info","message":"[ 'Checking for update' ]","timestamp":"2018-10-30T22:14:25.428Z"}
{"moduleName":"TokenManager","level":"info","message":"[ 'Done init' ]","timestamp":"2018-10-30T22:14:25.431Z"}
{"moduleName":"Download","level":"info","message":"[ 'Init' ]","timestamp":"2018-10-30T22:14:25.431Z"}
{"moduleName":"EditorManager","level":"info","message":"[ 'Init' ]","timestamp":"2018-10-30T22:14:25.467Z"}
{"moduleName":"Releases","level":"info","message":"[ 'Releases endpoint: https://public-cdn.cloud.unity3d.com/hub/prod/releases-linux.json' ]","timestamp":"2018-10-30T22:14:25.467Z"}
{"moduleName":"EditorList","level":"info","message":"[ 'init' ]","timestamp":"2018-10-30T22:14:25.468Z"}
{"moduleName":"customInstallLocation","level":"info","message":"[ 'Custom install path not present.' ]","timestamp":"2018-10-30T22:14:25.470Z"}
{"moduleName":"EditorFolderScanner","level":"info","message":"[ '0 out of 0 valid paths found in path: /home/partnerus/Unity/Hub/Editor' ]","timestamp":"2018-10-30T22:14:25.471Z"}
{"moduleName":"customInstallLocation","level":"info","message":"[ 'Cannot scan custom location (no path set).' ]","timestamp":"2018-10-30T22:14:25.471Z"}
{"moduleName":"LocatedEditorStorage","level":"info","message":"[ '0 located Editors found in storage' ]","timestamp":"2018-10-30T22:14:25.485Z"}
{"moduleName":"EditorApp","level":"info","message":"[ 'Init' ]","timestamp":"2018-10-30T22:14:25.486Z"}
{"moduleName":"Auth","level":"info","message":"[ 'Init' ]","timestamp":"2018-10-30T22:14:25.486Z"}
{"moduleName":"LicenseClient","level":"info","message":"[ 'Init' ]","timestamp":"2018-10-30T22:14:25.494Z"}
{"moduleName":"LicenseFSM","level":"info","message":"[ 'uninitialized --> initializing' ]","timestamp":"2018-10-30T22:14:25.495Z"}
{"moduleName":"LicenseClient","level":"info","message":"[ 'License initialized' ]","timestamp":"2018-10-30T22:14:25.585Z"}
{"moduleName":"LicenseFSM","level":"info","message":"[ 'initializing --> licenseValid' ]","timestamp":"2018-10-30T22:14:25.585Z"}
{"moduleName":"LicenseClient","level":"info","message":"[ 'New license verified' ]","timestamp":"2018-10-30T22:14:25.585Z"}
{"moduleName":"RestServer","level":"info","message":"[ 'Init' ]","timestamp":"2018-10-30T22:14:25.586Z"}
{"moduleName":"WebSocketService","level":"info","message":"[ 'starting listening for request' ]","timestamp":"2018-10-30T22:14:25.772Z"}
{"moduleName":"RestEventRouter","level":"info","message":"[ 'subscribing to: license.change' ]","timestamp":"2018-10-30T22:14:25.773Z"}
{"moduleName":"RestEventRouter","level":"info","message":"[ 'subscribing to: project.opened' ]","timestamp":"2018-10-30T22:14:25.773Z"}
{"moduleName":"RestEventRouter","level":"info","message":"[ 'subscribing to: project.create' ]","timestamp":"2018-10-30T22:14:25.773Z"}
{"moduleName":"RestEventRouter","level":"info","message":"[ 'subscribing to: project.createTemp' ]","timestamp":"2018-10-30T22:14:25.773Z"}
{"moduleName":"RestEventRouter","level":"info","message":"[ 'subscribing to: project.openedFromCloud' ]","timestamp":"2018-10-30T22:14:25.773Z"}
{"moduleName":"RestEventRouter","level":"info","message":"[ 'subscribing to: main-window.change' ]","timestamp":"2018-10-30T22:14:25.773Z"}
{"moduleName":"HubIPCService","level":"info","message":"[ 'Init' ]","timestamp":"2018-10-30T22:14:25.773Z"}
{"moduleName":"UnityIPCServer","level":"info","message":"[ 'IPC Server /tmp/Unity-hubIPCService.sock started' ]","timestamp":"2018-10-30T22:14:25.775Z"}
{"moduleName":"LocalProject","level":"info","message":"[ 'Init' ]","timestamp":"2018-10-30T22:14:25.776Z"}
{"moduleName":"WindowManager","level":"info","message":"[ 'Init' ]","timestamp":"2018-10-30T22:14:25.776Z"}
{"moduleName":"SignInWindow","level":"info","message":"[ 'Init' ]","timestamp":"2018-10-30T22:14:25.776Z"}
{"moduleName":"CloudAnalytics","level":"info","message":"[ 'Init' ]","timestamp":"2018-10-30T22:14:25.776Z"}
{"moduleName":"TrayMenu","level":"info","message":"[ 'Init' ]","timestamp":"2018-10-30T22:14:25.777Z"}
{"moduleName":"App","level":"info","message":"[ 'Getting initial route for Main Window' ]","timestamp":"2018-10-30T22:14:25.820Z"}
{"moduleName":"App","level":"info","message":"[ 'Loading installs page' ]","timestamp":"2018-10-30T22:14:30.751Z"}
{"moduleName":"LocalConfig","level":"info","message":"[ 'Failed to refresh data, fallback to default data. Reason: 404 - \"<html>\\\\n<head><title>404 Not Found</title></head>\\\\n<body>\\\\n<h1>404 Not Found</h1>\\\\n<ul>\\\\n<li>Code: NoSuchKey</li>\\\\n<li>Message: The specified key does not exist.</li>\\\\n<li>Key: hub/prod/hubConfig.json</li>\\\\n<li>RequestId: 78835997A6A1EA70</li>\\\\n<li>HostId: LcOKYXwBe3EzVojQAJi6UWdugPX6B+IWbAc1cKfX6eiIk6jiM+XOOCE/eMYgznKeFfn4Im21N9Q=</li>\\\\n</ul>\\\\n<hr/>\\\\n</body>\\\\n</html>\\\\n\"' ]","timestamp":"2018-10-30T22:14:30.990Z"}
{"moduleName":"AutoUpdater:EventHandler","level":"info","message":"[ 'No update available' ]","timestamp":"2018-10-30T22:14:30.994Z"}
{"moduleName":"Auth:NetworkFSM","level":"info","message":"[ 'uninitialized --> up' ]","timestamp":"2018-10-30T22:14:31.020Z"}
{"moduleName":"Auth","level":"info","message":"[ 'Both tokens are expired, user will be logged out' ]","timestamp":"2018-10-30T22:14:31.050Z"}
{"moduleName":"Auth","level":"info","message":"[ 'Successfully logged out' ]","timestamp":"2018-10-30T22:14:31.064Z"}
{"moduleName":"AutoUpdater:EventHandler","level":"info","message":"[ 'Checking for update' ]","timestamp":"2018-10-30T22:14:31.065Z"}
{"moduleName":"AutoUpdater:EventHandler","level":"info","message":"[ 'No update available' ]","timestamp":"2018-10-30T22:14:31.129Z"}
{"moduleName":"EditorDownloader","level":"info","message":"[ 'Editor Downloader 2017.4.14f1: starting' ]","timestamp":"2018-10-30T22:16:46.014Z"}
{"moduleName":"DownloadsCluster","level":"info","message":"[ 'Cluster total download size: 832.00MB' ]","timestamp":"2018-10-30T22:16:47.104Z"}
{"moduleName":"DownloadsCluster","level":"info","message":"[ 'Cluster cluster-2017.4.14f1: downloads starting' ]","timestamp":"2018-10-30T22:16:47.105Z"}
{"moduleName":"DownloadRequest","level":"info","message":"[ 'Starting the download of https://download.unity3d.com/download_unity/b28150134d55/MacDocumentationInstaller/Documentation.pkg to /tmp/unityhub-7cfca1a0-dc91-11e8-ac8d-d3312ab38de3/Documentation.pkg' ]","timestamp":"2018-10-30T22:16:47.107Z"}
{"moduleName":"DownloadRequest","level":"info","message":"[ 'Starting the download of https://download.unity3d.com/download_unity/b28150134d55/MacStandardAssetsInstaller/StandardAssets.pkg to /tmp/unityhub-7cfca1a0-dc91-11e8-ac8d-d3312ab38de3/StandardAssets.pkg' ]","timestamp":"2018-10-30T22:16:47.109Z"}
{"moduleName":"DownloadRequest","level":"info","message":"[ 'Starting the download of https://download.unity3d.com/download_unity/b28150134d55/MacExampleProjectInstaller/Examples.pkg to /tmp/unityhub-7cfca1a0-dc91-11e8-ac8d-d3312ab38de3/Examples.pkg' ]","timestamp":"2018-10-30T22:16:47.109Z"}
{"moduleName":"DownloadRequest","level":"info","message":"[ 'Starting the download of https://download.unity3d.com/download_unity/b28150134d55/LinuxEditorInstaller/Unity.tar.xz to /tmp/unityhub-7cfca1a0-dc91-11e8-ac8d-d3312ab38de3/Unity.tar.xz' ]","timestamp":"2018-10-30T22:16:47.526Z"}
{"moduleName":"EditorDownloader","level":"info","message":"[ 'Editor Download 2017.4.14f1: downloads starting, total size: 1.51GB)' ]","timestamp":"2018-10-30T22:16:47.528Z"}
{"moduleName":"Auth:NetworkFSM","level":"info","message":"[ 'up --> down' ]","timestamp":"2018-10-30T22:17:11.660Z"}
{"moduleName":"Auth:NetworkFSM","level":"info","message":"[ 'down --> up' ]","timestamp":"2018-10-30T22:17:11.709Z"}
{"moduleName":"Auth","level":"info","message":"[ 'Both tokens are expired, user will be logged out' ]","timestamp":"2018-10-30T22:17:11.744Z"}
{"moduleName":"Auth","level":"info","message":"[ 'Successfully logged out' ]","timestamp":"2018-10-30T22:17:11.751Z"}
{"moduleName":"AutoUpdater:EventHandler","level":"info","message":"[ 'Checking for update' ]","timestamp":"2018-10-30T22:17:11.754Z"}
{"moduleName":"AutoUpdater:EventHandler","level":"info","message":"[ 'No update available' ]","timestamp":"2018-10-30T22:17:11.829Z"}
{"moduleName":"LocalConfig","level":"info","message":"[ 'Failed to refresh data, fallback to default data. Reason: 404 - \"<html>\\\\n<head><title>404 Not Found</title></head>\\\\n<body>\\\\n<h1>404 Not Found</h1>\\\\n<ul>\\\\n<li>Code: NoSuchKey</li>\\\\n<li>Message: The specified key does not exist.</li>\\\\n<li>Key: hub/prod/hubConfig.json</li>\\\\n<li>RequestId: 1FE7A509DC80E534</li>\\\\n<li>HostId: PLbg9eZMlOacXy5HObhLQOoGbrL7wFcNAvPq1Mvjv7uJQHfjwZYNHniP+K3Qg0yBMxSxlwCP8L0=</li>\\\\n</ul>\\\\n<hr/>\\\\n</body>\\\\n</html>\\\\n\"' ]","timestamp":"2018-10-30T22:17:12.116Z"}
{"moduleName":"Auth:NetworkFSM","level":"info","message":"[ 'up --> down' ]","timestamp":"2018-10-30T22:17:24.165Z"}
{"moduleName":"Auth:NetworkFSM","level":"info","message":"[ 'down --> up' ]","timestamp":"2018-10-30T22:17:24.225Z"}
{"moduleName":"Auth","level":"info","message":"[ 'Both tokens are expired, user will be logged out' ]","timestamp":"2018-10-30T22:17:24.265Z"}
{"moduleName":"Auth","level":"info","message":"[ 'Successfully logged out' ]","timestamp":"2018-10-30T22:17:24.272Z"}
{"moduleName":"AutoUpdater:EventHandler","level":"info","message":"[ 'Checking for update' ]","timestamp":"2018-10-30T22:17:24.274Z"}
{"moduleName":"AutoUpdater:EventHandler","level":"info","message":"[ 'No update available' ]","timestamp":"2018-10-30T22:17:24.355Z"}
{"moduleName":"LocalConfig","level":"info","message":"[ 'Failed to refresh data, fallback to default data. Reason: 404 - \"<html>\\\\n<head><title>404 Not Found</title></head>\\\\n<body>\\\\n<h1>404 Not Found</h1>\\\\n<ul>\\\\n<li>Code: NoSuchKey</li>\\\\n<li>Message: The specified key does not exist.</li>\\\\n<li>Key: hub/prod/hubConfig.json</li>\\\\n<li>RequestId: 0148BB37639CB630</li>\\\\n<li>HostId: Y3TLqCf2Px9txG2rOEkzt/1pVXlTdiXlkDYlo56IRKWgo8eOyqIQ6hIJ0wFTTe+Y99xjiqiY2FE=</li>\\\\n</ul>\\\\n<hr/>\\\\n</body>\\\\n</html>\\\\n\"' ]","timestamp":"2018-10-30T22:17:24.691Z"}
{"moduleName":"Auth:NetworkFSM","level":"info","message":"[ 'up --> down' ]","timestamp":"2018-10-30T22:17:26.667Z"}
{"moduleName":"Auth:NetworkFSM","level":"info","message":"[ 'down --> up' ]","timestamp":"2018-10-30T22:17:27.249Z"}
{"moduleName":"Auth","level":"info","message":"[ 'Both tokens are expired, user will be logged out' ]","timestamp":"2018-10-30T22:17:27.338Z"}
{"moduleName":"Auth","level":"info","message":"[ 'Successfully logged out' ]","timestamp":"2018-10-30T22:17:27.345Z"}
{"moduleName":"AutoUpdater:EventHandler","level":"info","message":"[ 'Checking for update' ]","timestamp":"2018-10-30T22:17:27.347Z"}
{"moduleName":"AutoUpdater:EventHandler","level":"info","message":"[ 'No update available' ]","timestamp":"2018-10-30T22:17:27.416Z"}
{"moduleName":"LocalConfig","level":"info","message":"[ 'Failed to refresh data, fallback to default data. Reason: 404 - \"<html>\\\\n<head><title>404 Not Found</title></head>\\\\n<body>\\\\n<h1>404 Not Found</h1>\\\\n<ul>\\\\n<li>Code: NoSuchKey</li>\\\\n<li>Message: The specified key does not exist.</li>\\\\n<li>Key: hub/prod/hubConfig.json</li>\\\\n<li>RequestId: 8242C4AEF0F14CD5</li>\\\\n<li>HostId: dSipBDiz+nmcrkrUt5vJhC5TiG5tdhxM4YEail5DddIcv4kOPeV2oHECRB10lSMGGkG53AH3hWU=</li>\\\\n</ul>\\\\n<hr/>\\\\n</body>\\\\n</html>\\\\n\"' ]","timestamp":"2018-10-30T22:17:27.739Z"}
{"moduleName":"Auth:NetworkFSM","level":"info","message":"[ 'up --> down' ]","timestamp":"2018-10-30T22:18:37.183Z"}
{"moduleName":"Auth:NetworkFSM","level":"info","message":"[ 'down --> up' ]","timestamp":"2018-10-30T22:18:37.227Z"}
{"moduleName":"Auth","level":"info","message":"[ 'Both tokens are expired, user will be logged out' ]","timestamp":"2018-10-30T22:18:37.299Z"}
{"moduleName":"Auth","level":"info","message":"[ 'Successfully logged out' ]","timestamp":"2018-10-30T22:18:37.307Z"}
{"moduleName":"AutoUpdater:EventHandler","level":"info","message":"[ 'Checking for update' ]","timestamp":"2018-10-30T22:18:37.309Z"}
{"moduleName":"AutoUpdater:EventHandler","level":"info","message":"[ 'No update available' ]","timestamp":"2018-10-30T22:18:37.386Z"}
{"moduleName":"LocalConfig","level":"info","message":"[ 'Failed to refresh data, fallback to default data. Reason: 404 - \"<html>\\\\n<head><title>404 Not Found</title></head>\\\\n<body>\\\\n<h1>404 Not Found</h1>\\\\n<ul>\\\\n<li>Code: NoSuchKey</li>\\\\n<li>Message: The specified key does not exist.</li>\\\\n<li>Key: hub/prod/hubConfig.json</li>\\\\n<li>RequestId: 143D70F03995130C</li>\\\\n<li>HostId: KXVePrXHxYXrn3kH6xhRGuwmmXQAkup8ewJH3Q8sMTNS9hdSXW+fN15SmgLA8M0EXfgb75Zt/lw=</li>\\\\n</ul>\\\\n<hr/>\\\\n</body>\\\\n</html>\\\\n\"' ]","timestamp":"2018-10-30T22:18:39.089Z"}
{"moduleName":"Auth:NetworkFSM","level":"info","message":"[ 'up --> down' ]","timestamp":"2018-10-30T22:18:40.686Z"}
{"moduleName":"Auth:NetworkFSM","level":"info","message":"[ 'down --> up' ]","timestamp":"2018-10-30T22:18:40.796Z"}
{"moduleName":"Auth","level":"info","message":"[ 'Both tokens are expired, user will be logged out' ]","timestamp":"2018-10-30T22:18:40.887Z"}
{"moduleName":"Auth","level":"info","message":"[ 'Successfully logged out' ]","timestamp":"2018-10-30T22:18:40.893Z"}
{"moduleName":"AutoUpdater:EventHandler","level":"info","message":"[ 'Checking for update' ]","timestamp":"2018-10-30T22:18:40.894Z"}
{"moduleName":"AutoUpdater:EventHandler","level":"info","message":"[ 'No update available' ]","timestamp":"2018-10-30T22:18:40.969Z"}
{"moduleName":"LocalConfig","level":"info","message":"[ 'Failed to refresh data, fallback to default data. Reason: 404 - \"<html>\\\\n<head><title>404 Not Found</title></head>\\\\n<body>\\\\n<h1>404 Not Found</h1>\\\\n<ul>\\\\n<li>Code: NoSuchKey</li>\\\\n<li>Message: The specified key does not exist.</li>\\\\n<li>Key: hub/prod/hubConfig.json</li>\\\\n<li>RequestId: 1D453C0DFCF4A0CE</li>\\\\n<li>HostId: 91SCCftjLpaLbmKTVjADvPn7lxcfLKxiLUNi2cPrIz32uSUzBF1f1pyeP+SifCE0zoxwUClJUwg=</li>\\\\n</ul>\\\\n<hr/>\\\\n</body>\\\\n</html>\\\\n\"' ]","timestamp":"2018-10-30T22:18:41.405Z"}
{"moduleName":"DownloadManager","level":"info","message":"[ 'download ended with status: 3 /tmp/unityhub-7cfca1a0-dc91-11e8-ac8d-d3312ab38de3/StandardAssets.pkg' ]","timestamp":"2018-10-30T22:18:53.549Z"}
{"moduleName":"Auth:NetworkFSM","level":"info","message":"[ 'up --> down' ]","timestamp":"2018-10-30T22:19:44.730Z"}
{"moduleName":"Auth:NetworkFSM","level":"info","message":"[ 'down --> up' ]","timestamp":"2018-10-30T22:19:44.796Z"}
{"moduleName":"Auth","level":"info","message":"[ 'Both tokens are expired, user will be logged out' ]","timestamp":"2018-10-30T22:19:44.868Z"}
{"moduleName":"Auth","level":"info","message":"[ 'Successfully logged out' ]","timestamp":"2018-10-30T22:19:44.875Z"}
{"moduleName":"AutoUpdater:EventHandler","level":"info","message":"[ 'Checking for update' ]","timestamp":"2018-10-30T22:19:44.878Z"}
{"moduleName":"AutoUpdater:EventHandler","level":"info","message":"[ 'No update available' ]","timestamp":"2018-10-30T22:19:44.955Z"}
{"moduleName":"LocalConfig","level":"info","message":"[ 'Failed to refresh data, fallback to default data. Reason: 404 - \"<html>\\\\n<head><title>404 Not Found</title></head>\\\\n<body>\\\\n<h1>404 Not Found</h1>\\\\n<ul>\\\\n<li>Code: NoSuchKey</li>\\\\n<li>Message: The specified key does not exist.</li>\\\\n<li>Key: hub/prod/hubConfig.json</li>\\\\n<li>RequestId: 140C53284666AC18</li>\\\\n<li>HostId: Toe05fn+yA+0adaGjxf7QakFBZ4oQfhOkTvS0pnTDQgpmq20DKtZ0MSNKDcg0bchY4alljmugMc=</li>\\\\n</ul>\\\\n<hr/>\\\\n</body>\\\\n</html>\\\\n\"' ]","timestamp":"2018-10-30T22:19:45.303Z"}
{"moduleName":"Auth:NetworkFSM","level":"info","message":"[ 'up --> down' ]","timestamp":"2018-10-30T22:20:46.754Z"}
{"moduleName":"Auth:NetworkFSM","level":"info","message":"[ 'down --> up' ]","timestamp":"2018-10-30T22:20:46.815Z"}
{"moduleName":"Auth","level":"info","message":"[ 'Both tokens are expired, user will be logged out' ]","timestamp":"2018-10-30T22:20:46.882Z"}
{"moduleName":"Auth","level":"info","message":"[ 'Successfully logged out' ]","timestamp":"2018-10-30T22:20:46.892Z"}
{"moduleName":"AutoUpdater:EventHandler","level":"info","message":"[ 'Checking for update' ]","timestamp":"2018-10-30T22:20:46.893Z"}
{"moduleName":"AutoUpdater:EventHandler","level":"info","message":"[ 'No update available' ]","timestamp":"2018-10-30T22:20:46.959Z"}
{"moduleName":"LocalConfig","level":"info","message":"[ 'Failed to refresh data, fallback to default data. Reason: 404 - \"<html>\\\\n<head><title>404 Not Found</title></head>\\\\n<body>\\\\n<h1>404 Not Found</h1>\\\\n<ul>\\\\n<li>Code: NoSuchKey</li>\\\\n<li>Message: The specified key does not exist.</li>\\\\n<li>Key: hub/prod/hubConfig.json</li>\\\\n<li>RequestId: 991F9CB4333A20EC</li>\\\\n<li>HostId: NV5igZ65t+22gmB5YFI4glzjxEePnVAaRnENqB8EghiLxcE2obfQahVpTRgoQJ4cFzC1/erMdlY=</li>\\\\n</ul>\\\\n<hr/>\\\\n</body>\\\\n</html>\\\\n\"' ]","timestamp":"2018-10-30T22:20:47.319Z"}
{"moduleName":"Auth:NetworkFSM","level":"info","message":"[ 'up --> down' ]","timestamp":"2018-10-30T22:21:26.259Z"}
{"moduleName":"Auth:NetworkFSM","level":"info","message":"[ 'down --> up' ]","timestamp":"2018-10-30T22:21:28.347Z"}
{"moduleName":"Auth","level":"info","message":"[ 'Both tokens are expired, user will be logged out' ]","timestamp":"2018-10-30T22:21:28.432Z"}
{"moduleName":"Auth","level":"info","message":"[ 'Successfully logged out' ]","timestamp":"2018-10-30T22:21:28.441Z"}
{"moduleName":"AutoUpdater:EventHandler","level":"info","message":"[ 'Checking for update' ]","timestamp":"2018-10-30T22:21:28.444Z"}
{"moduleName":"AutoUpdater:EventHandler","level":"info","message":"[ 'No update available' ]","timestamp":"2018-10-30T22:21:28.516Z"}
{"moduleName":"LocalConfig","level":"info","message":"[ 'Failed to refresh data, fallback to default data. Reason: 404 - \"<html>\\\\n<head><title>404 Not Found</title></head>\\\\n<body>\\\\n<h1>404 Not Found</h1>\\\\n<ul>\\\\n<li>Code: NoSuchKey</li>\\\\n<li>Message: The specified key does not exist.</li>\\\\n<li>Key: hub/prod/hubConfig.json</li>\\\\n<li>RequestId: 6069836D0904E2BD</li>\\\\n<li>HostId: 6LXyDEagMcFaeroQx3vbaKv8eQDlBoBabdUcX7fGII53AR9xfSDuc1IN7IdnMe3cUdBjQKAawiI=</li>\\\\n</ul>\\\\n<hr/>\\\\n</body>\\\\n</html>\\\\n\"' ]","timestamp":"2018-10-30T22:21:28.905Z"}
{"moduleName":"Auth:NetworkFSM","level":"info","message":"[ 'up --> down' ]","timestamp":"2018-10-30T22:23:27.791Z"}
{"moduleName":"Auth:NetworkFSM","level":"info","message":"[ 'down --> up' ]","timestamp":"2018-10-30T22:23:27.871Z"}
{"moduleName":"Auth","level":"info","message":"[ 'Both tokens are expired, user will be logged out' ]","timestamp":"2018-10-30T22:23:27.948Z"}
{"moduleName":"Auth","level":"info","message":"[ 'Successfully logged out' ]","timestamp":"2018-10-30T22:23:27.956Z"}
{"moduleName":"AutoUpdater:EventHandler","level":"info","message":"[ 'Checking for update' ]","timestamp":"2018-10-30T22:23:27.957Z"}
{"moduleName":"AutoUpdater:EventHandler","level":"info","message":"[ 'No update available' ]","timestamp":"2018-10-30T22:23:28.031Z"}
{"moduleName":"LocalConfig","level":"info","message":"[ 'Failed to refresh data, fallback to default data. Reason: 404 - \"<html>\\\\n<head><title>404 Not Found</title></head>\\\\n<body>\\\\n<h1>404 Not Found</h1>\\\\n<ul>\\\\n<li>Code: NoSuchKey</li>\\\\n<li>Message: The specified key does not exist.</li>\\\\n<li>Key: hub/prod/hubConfig.json</li>\\\\n<li>RequestId: EE5C84643A62BC3A</li>\\\\n<li>HostId: Xm1PI+fPcMTWymotPNN4dnUSGYFKt+532RWGbw4RVHhok/j63w60uXK+WVXXr7s2304h6RKL2jg=</li>\\\\n</ul>\\\\n<hr/>\\\\n</body>\\\\n</html>\\\\n\"' ]","timestamp":"2018-10-30T22:23:28.371Z"}
{"moduleName":"Auth:NetworkFSM","level":"info","message":"[ 'up --> down' ]","timestamp":"2018-10-30T22:24:21.303Z"}
{"moduleName":"Auth:NetworkFSM","level":"info","message":"[ 'down --> up' ]","timestamp":"2018-10-30T22:24:21.374Z"}
{"moduleName":"Auth","level":"info","message":"[ 'Both tokens are expired, user will be logged out' ]","timestamp":"2018-10-30T22:24:21.448Z"}
{"moduleName":"Auth","level":"info","message":"[ 'Successfully logged out' ]","timestamp":"2018-10-30T22:24:21.456Z"}
{"moduleName":"AutoUpdater:EventHandler","level":"info","message":"[ 'Checking for update' ]","timestamp":"2018-10-30T22:24:21.457Z"}
{"moduleName":"AutoUpdater:EventHandler","level":"info","message":"[ 'No update available' ]","timestamp":"2018-10-30T22:24:21.529Z"}
{"moduleName":"LocalConfig","level":"info","message":"[ 'Failed to refresh data, fallback to default data. Reason: 404 - \"<html>\\\\n<head><title>404 Not Found</title></head>\\\\n<body>\\\\n<h1>404 Not Found</h1>\\\\n<ul>\\\\n<li>Code: NoSuchKey</li>\\\\n<li>Message: The specified key does not exist.</li>\\\\n<li>Key: hub/prod/hubConfig.json</li>\\\\n<li>RequestId: F6F8276E440A0D67</li>\\\\n<li>HostId: 8zC1X0TcNEa0OqdsUm6klyPRFA1CmH9PxxZeL9hVHYVr/N2sJeggk9cAfX7YHKgXabw/9hoivI8=</li>\\\\n</ul>\\\\n<hr/>\\\\n</body>\\\\n</html>\\\\n\"' ]","timestamp":"2018-10-30T22:24:21.850Z"}
{"moduleName":"Auth:NetworkFSM","level":"info","message":"[ 'up --> down' ]","timestamp":"2018-10-30T22:24:35.310Z"}
{"moduleName":"Auth:NetworkFSM","level":"info","message":"[ 'down --> up' ]","timestamp":"2018-10-30T22:24:35.378Z"}
{"moduleName":"Auth","level":"info","message":"[ 'Both tokens are expired, user will be logged out' ]","timestamp":"2018-10-30T22:24:35.449Z"}
{"moduleName":"Auth","level":"info","message":"[ 'Successfully logged out' ]","timestamp":"2018-10-30T22:24:35.456Z"}
{"moduleName":"AutoUpdater:EventHandler","level":"info","message":"[ 'Checking for update' ]","timestamp":"2018-10-30T22:24:35.458Z"}
{"moduleName":"AutoUpdater:EventHandler","level":"info","message":"[ 'No update available' ]","timestamp":"2018-10-30T22:24:35.528Z"}
{"moduleName":"LocalConfig","level":"info","message":"[ 'Failed to refresh data, fallback to default data. Reason: 404 - \"<html>\\\\n<head><title>404 Not Found</title></head>\\\\n<body>\\\\n<h1>404 Not Found</h1>\\\\n<ul>\\\\n<li>Code: NoSuchKey</li>\\\\n<li>Message: The specified key does not exist.</li>\\\\n<li>Key: hub/prod/hubConfig.json</li>\\\\n<li>RequestId: 1A905DC726414573</li>\\\\n<li>HostId: FFgnGuHDgMiUig0fHrn/+9j/7oPdlQ+5rPgTJCC6yjfJBfRDLesedK4PpGHDJgJ/j+dOteGTfvU=</li>\\\\n</ul>\\\\n<hr/>\\\\n</body>\\\\n</html>\\\\n\"' ]","timestamp":"2018-10-30T22:24:35.827Z"}
{"moduleName":"DownloadManager","level":"info","message":"[ 'download ended with status: 3 /tmp/unityhub-7cfca1a0-dc91-11e8-ac8d-d3312ab38de3/Examples.pkg' ]","timestamp":"2018-10-30T22:24:58.570Z"}
{"moduleName":"EditorDownloader","level":"info","message":"[ 'Editor Downloader 2017.4.14f1: end event for editor' ]","timestamp":"2018-10-30T22:27:52.892Z"}
{"moduleName":"DownloadManager","level":"info","message":"[ 'download ended with status: 3 /tmp/unityhub-7cfca1a0-dc91-11e8-ac8d-d3312ab38de3/Unity.tar.xz' ]","timestamp":"2018-10-30T22:27:52.892Z"}
{"moduleName":"DownloadsCluster","level":"info","message":"[ 'Cluster cluster-2017.4.14f1: Finished' ]","timestamp":"2018-10-30T22:36:32.405Z"}
{"moduleName":"EditorDownloader","level":"info","message":"[ 'Editor Downloader 2017.4.14f1: end event for cluster' ]","timestamp":"2018-10-30T22:36:32.405Z"}
{"moduleName":"EditorDownloader","level":"info","message":"[ 'Editor Download 2017.4.14f1: Finished' ]","timestamp":"2018-10-30T22:36:32.406Z"}
{"moduleName":"DownloadManager","level":"info","message":"[ 'download ended with status: 3 /tmp/unityhub-7cfca1a0-dc91-11e8-ac8d-d3312ab38de3/Documentation.pkg' ]","timestamp":"2018-10-30T22:36:32.409Z"}
{"moduleName":"Download","level":"info","message":"[ 'Editor download ended successfully. Download id: 2017.4.14f1' ]","timestamp":"2018-10-30T22:36:38.504Z"}
{"moduleName":"Installer","level":"info","message":"[ 'Install 2017.4.14f1: /tmp/unityhub-7cfca1a0-dc91-11e8-ac8d-d3312ab38de3/Unity.tar.xz to /home/partnerus/Unity/Hub/Editor/2017.4.14f1 started' ]","timestamp":"2018-10-30T22:36:38.505Z"}
{"moduleName":"UnityInstallerLinux","level":"warn","message":"[ { Error: Command failed: 7z x -y -o\"/home/partnerus/Unity/Hub/Editor/2017.4.14f1/Editor/Data/Documentation/tmp\" \"/tmp/unityhub-7cfca1a0-dc91-11e8-ac8d-d3312ab38de3/Documentation.pkg\"\n  /bin/sh: 7z: command not found\n  \n      at ChildProcess.exithandler (child_process.js:282:12)\n      at emitTwo (events.js:125:13)\n      at ChildProcess.emit (events.js:213:7)\n      at maybeClose (internal/child_process.js:921:16)\n      at Socket.stream.socket.on (internal/child_process.js:348:11)\n      at emitOne (events.js:115:13)\n      at Socket.emit (events.js:210:7)\n      at Pipe._handle.close [as _onclose] (net.js:549:12)\n    killed: false,\n    code: 127,\n    signal: null,\n    cmd: '7z x -y -o\"/home/partnerus/Unity/Hub/Editor/2017.4.14f1/Editor/Data/Documentation/tmp\" \"/tmp/unityhub-7cfca1a0-dc91-11e8-ac8d-d3312ab38de3/Documentation.pkg\"' } ]","timestamp":"2018-10-30T22:37:20.702Z"}
{"moduleName":"UnityInstallerLinux","level":"warn","message":"[ { Error: Command failed: 7z x -y -o\"/home/partnerus/Unity/Hub/Editor/2017.4.14f1/tmp\" \"/tmp/unityhub-7cfca1a0-dc91-11e8-ac8d-d3312ab38de3/StandardAssets.pkg\"\n  /bin/sh: 7z: command not found\n  \n      at ChildProcess.exithandler (child_process.js:282:12)\n      at emitTwo (events.js:125:13)\n      at ChildProcess.emit (events.js:213:7)\n      at maybeClose (internal/child_process.js:921:16)\n      at Socket.stream.socket.on (internal/child_process.js:348:11)\n      at emitOne (events.js:115:13)\n      at Socket.emit (events.js:210:7)\n      at Pipe._handle.close [as _onclose] (net.js:549:12)\n    killed: false,\n    code: 127,\n    signal: null,\n    cmd: '7z x -y -o\"/home/partnerus/Unity/Hub/Editor/2017.4.14f1/tmp\" \"/tmp/unityhub-7cfca1a0-dc91-11e8-ac8d-d3312ab38de3/StandardAssets.pkg\"' } ]","timestamp":"2018-10-30T22:37:20.710Z"}
{"moduleName":"UnityInstallerLinux","level":"warn","message":"[ { Error: Command failed: 7z x -y -o\"/home/partnerus/Unity/Hub/Editor/2017.4.14f1/tmp\" \"/tmp/unityhub-7cfca1a0-dc91-11e8-ac8d-d3312ab38de3/Examples.pkg\"\n  /bin/sh: 7z: command not found\n  \n      at ChildProcess.exithandler (child_process.js:282:12)\n      at emitTwo (events.js:125:13)\n      at ChildProcess.emit (events.js:213:7)\n      at maybeClose (internal/child_process.js:921:16)\n      at Socket.stream.socket.on (internal/child_process.js:348:11)\n      at emitOne (events.js:115:13)\n      at Socket.emit (events.js:210:7)\n      at Pipe._handle.close [as _onclose] (net.js:549:12)\n    killed: false,\n    code: 127,\n    signal: null,\n    cmd: '7z x -y -o\"/home/partnerus/Unity/Hub/Editor/2017.4.14f1/tmp\" \"/tmp/unityhub-7cfca1a0-dc91-11e8-ac8d-d3312ab38de3/Examples.pkg\"' } ]","timestamp":"2018-10-30T22:37:20.717Z"}
{"moduleName":"Installer:ReleaseFileIO","level":"info","message":"[ 'write /home/partnerus/Unity/Hub/Editor/2017.4.14f1/modules.json' ]","timestamp":"2018-10-30T22:37:20.717Z"}
{"moduleName":"Installer:ReleaseFileIO","level":"info","message":"[ 'read /home/partnerus/Unity/Hub/Editor/2017.4.14f1/modules.json' ]","timestamp":"2018-10-30T22:37:20.786Z"}
{"moduleName":"DefaultEditorFinder","level":"info","message":"[ 'Default Editor not found. Setting Unity 2017.4.14f1 as default.' ]","timestamp":"2018-10-30T22:37:20.787Z"}
{"moduleName":"Auth:NetworkFSM","level":"info","message":"[ 'up --> down' ]","timestamp":"2018-10-30T22:38:53.245Z"}
{"moduleName":"Auth:NetworkFSM","level":"info","message":"[ 'down --> up' ]","timestamp":"2018-10-30T22:38:53.306Z"}
{"moduleName":"Auth","level":"info","message":"[ 'Both tokens are expired, user will be logged out' ]","timestamp":"2018-10-30T22:38:53.385Z"}
{"moduleName":"Auth","level":"info","message":"[ 'Successfully logged out' ]","timestamp":"2018-10-30T22:38:53.394Z"}
{"moduleName":"AutoUpdater:EventHandler","level":"info","message":"[ 'Checking for update' ]","timestamp":"2018-10-30T22:38:53.397Z"}
{"moduleName":"AutoUpdater:EventHandler","level":"info","message":"[ 'No update available' ]","timestamp":"2018-10-30T22:38:53.692Z"}
{"moduleName":"LocalConfig","level":"info","message":"[ 'Failed to refresh data, fallback to default data. Reason: 404 - \"<html>\\\\n<head><title>404 Not Found</title></head>\\\\n<body>\\\\n<h1>404 Not Found</h1>\\\\n<ul>\\\\n<li>Code: NoSuchKey</li>\\\\n<li>Message: The specified key does not exist.</li>\\\\n<li>Key: hub/prod/hubConfig.json</li>\\\\n<li>RequestId: B207699999690256</li>\\\\n<li>HostId: xYTfHpOOnpbkoQpE0R/b/A6LmCBo1A0Vpiio8mK6Wf9wC/JBRFOiCE+INQh2eCz21DkuSaoeVHA=</li>\\\\n</ul>\\\\n<hr/>\\\\n</body>\\\\n</html>\\\\n\"' ]","timestamp":"2018-10-30T22:38:53.818Z"}
{"moduleName":"DownloadsCluster","level":"info","message":"[ 'Cluster total download size: 832.00MB' ]","timestamp":"2018-10-30T22:49:43.376Z"}
{"moduleName":"DownloadsCluster","level":"info","message":"[ 'Cluster 2017.4.14f1: downloads starting' ]","timestamp":"2018-10-30T22:49:43.377Z"}
{"moduleName":"DownloadRequest","level":"info","message":"[ 'Starting the download of https://download.unity3d.com/download_unity/b28150134d55/MacDocumentationInstaller/Documentation.pkg to /tmp/unityhub-17044100-dc96-11e8-ac8d-d3312ab38de3/Documentation.pkg' ]","timestamp":"2018-10-30T22:49:43.377Z"}
{"moduleName":"DownloadRequest","level":"info","message":"[ 'Starting the download of https://download.unity3d.com/download_unity/b28150134d55/MacStandardAssetsInstaller/StandardAssets.pkg to /tmp/unityhub-17044100-dc96-11e8-ac8d-d3312ab38de3/StandardAssets.pkg' ]","timestamp":"2018-10-30T22:49:43.380Z"}
{"moduleName":"DownloadRequest","level":"info","message":"[ 'Starting the download of https://download.unity3d.com/download_unity/b28150134d55/MacExampleProjectInstaller/Examples.pkg to /tmp/unityhub-17044100-dc96-11e8-ac8d-d3312ab38de3/Examples.pkg' ]","timestamp":"2018-10-30T22:49:43.380Z"}
{"moduleName":"Auth:NetworkFSM","level":"info","message":"[ 'up --> down' ]","timestamp":"2018-10-30T22:50:19.041Z"}
{"moduleName":"Auth:NetworkFSM","level":"info","message":"[ 'down --> up' ]","timestamp":"2018-10-30T22:50:19.150Z"}
{"moduleName":"Auth","level":"info","message":"[ 'Both tokens are expired, user will be logged out' ]","timestamp":"2018-10-30T22:50:19.250Z"}
{"moduleName":"Auth","level":"info","message":"[ 'Successfully logged out' ]","timestamp":"2018-10-30T22:50:19.260Z"}
{"moduleName":"AutoUpdater:EventHandler","level":"info","message":"[ 'Checking for update' ]","timestamp":"2018-10-30T22:50:19.263Z"}
{"moduleName":"AutoUpdater:EventHandler","level":"info","message":"[ 'No update available' ]","timestamp":"2018-10-30T22:50:19.606Z"}
{"moduleName":"LocalConfig","level":"info","message":"[ 'Failed to refresh data, fallback to default data. Reason: 404 - \"<html>\\\\n<head><title>404 Not Found</title></head>\\\\n<body>\\\\n<h1>404 Not Found</h1>\\\\n<ul>\\\\n<li>Code: NoSuchKey</li>\\\\n<li>Message: The specified key does not exist.</li>\\\\n<li>Key: hub/prod/hubConfig.json</li>\\\\n<li>RequestId: 7D0FBE815E12AD0E</li>\\\\n<li>HostId: 8c6WOzsLrvlKreQf/EnBY4eFTT5IH6/WS6bM/yOJWssbQfUhMBp5ZLvfmv8i0xL/blPqVwu1PIE=</li>\\\\n</ul>\\\\n<hr/>\\\\n</body>\\\\n</html>\\\\n\"' ]","timestamp":"2018-10-30T22:50:19.764Z"}
{"moduleName":"Auth:NetworkFSM","level":"info","message":"[ 'up --> down' ]","timestamp":"2018-10-30T22:50:34.046Z"}
{"moduleName":"Auth:NetworkFSM","level":"info","message":"[ 'down --> up' ]","timestamp":"2018-10-30T22:50:34.129Z"}
{"moduleName":"Auth","level":"info","message":"[ 'Both tokens are expired, user will be logged out' ]","timestamp":"2018-10-30T22:50:34.222Z"}
{"moduleName":"Auth","level":"info","message":"[ 'Successfully logged out' ]","timestamp":"2018-10-30T22:50:34.231Z"}
{"moduleName":"AutoUpdater:EventHandler","level":"info","message":"[ 'Checking for update' ]","timestamp":"2018-10-30T22:50:34.234Z"}
{"moduleName":"AutoUpdater:EventHandler","level":"info","message":"[ 'No update available' ]","timestamp":"2018-10-30T22:50:34.321Z"}
{"moduleName":"LocalConfig","level":"info","message":"[ 'Failed to refresh data, fallback to default data. Reason: 404 - \"<html>\\\\n<head><title>404 Not Found</title></head>\\\\n<body>\\\\n<h1>404 Not Found</h1>\\\\n<ul>\\\\n<li>Code: NoSuchKey</li>\\\\n<li>Message: The specified key does not exist.</li>\\\\n<li>Key: hub/prod/hubConfig.json</li>\\\\n<li>RequestId: 56C74A48E283D036</li>\\\\n<li>HostId: 0jna8xUkjH8EJCGRx0KWOPz9J4U9pWG0RKOG/ynXoaTd1WHUIruqZC5e+f4L5tXnIEziEpwQ504=</li>\\\\n</ul>\\\\n<hr/>\\\\n</body>\\\\n</html>\\\\n\"' ]","timestamp":"2018-10-30T22:50:34.707Z"}
{"moduleName":"Auth:NetworkFSM","level":"info","message":"[ 'up --> down' ]","timestamp":"2018-10-30T22:50:51.552Z"}
{"moduleName":"Auth:NetworkFSM","level":"info","message":"[ 'down --> up' ]","timestamp":"2018-10-30T22:50:51.638Z"}
{"moduleName":"Auth","level":"info","message":"[ 'Both tokens are expired, user will be logged out' ]","timestamp":"2018-10-30T22:50:51.731Z"}
{"moduleName":"Auth","level":"info","message":"[ 'Successfully logged out' ]","timestamp":"2018-10-30T22:50:51.741Z"}
{"moduleName":"AutoUpdater:EventHandler","level":"info","message":"[ 'Checking for update' ]","timestamp":"2018-10-30T22:50:51.743Z"}
{"moduleName":"AutoUpdater:EventHandler","level":"info","message":"[ 'No update available' ]","timestamp":"2018-10-30T22:50:51.833Z"}
{"moduleName":"LocalConfig","level":"info","message":"[ 'Failed to refresh data, fallback to default data. Reason: 404 - \"<html>\\\\n<head><title>404 Not Found</title></head>\\\\n<body>\\\\n<h1>404 Not Found</h1>\\\\n<ul>\\\\n<li>Code: NoSuchKey</li>\\\\n<li>Message: The specified key does not exist.</li>\\\\n<li>Key: hub/prod/hubConfig.json</li>\\\\n<li>RequestId: 610A86D1411A5368</li>\\\\n<li>HostId: 4k4nj/BtC+Bm9OUmTRKG8gs8zAm3bKP+Tv1Gvn7hYgzGyWdNObY9QtlyrQT/DbDdGDpGZ5e8kd8=</li>\\\\n</ul>\\\\n<hr/>\\\\n</body>\\\\n</html>\\\\n\"' ]","timestamp":"2018-10-30T22:50:52.413Z"}
{"moduleName":"Auth:NetworkFSM","level":"info","message":"[ 'up --> down' ]","timestamp":"2018-10-30T22:50:59.056Z"}
{"moduleName":"Auth:NetworkFSM","level":"info","message":"[ 'down --> up' ]","timestamp":"2018-10-30T22:50:59.154Z"}
{"moduleName":"Auth","level":"info","message":"[ 'Both tokens are expired, user will be logged out' ]","timestamp":"2018-10-30T22:50:59.255Z"}
{"moduleName":"Auth","level":"info","message":"[ 'Successfully logged out' ]","timestamp":"2018-10-30T22:50:59.264Z"}
{"moduleName":"AutoUpdater:EventHandler","level":"info","message":"[ 'Checking for update' ]","timestamp":"2018-10-30T22:50:59.266Z"}
{"moduleName":"AutoUpdater:EventHandler","level":"info","message":"[ 'No update available' ]","timestamp":"2018-10-30T22:50:59.359Z"}
{"moduleName":"LocalConfig","level":"info","message":"[ 'Failed to refresh data, fallback to default data. Reason: 404 - \"<html>\\\\n<head><title>404 Not Found</title></head>\\\\n<body>\\\\n<h1>404 Not Found</h1>\\\\n<ul>\\\\n<li>Code: NoSuchKey</li>\\\\n<li>Message: The specified key does not exist.</li>\\\\n<li>Key: hub/prod/hubConfig.json</li>\\\\n<li>RequestId: FFB18AF9CF04D8E6</li>\\\\n<li>HostId: cvxH+ZpxvNWfoO2G2HV94N+xUp0TdtfRqNInXCBPMb5DXEtYkLc9MaqOXK9yCS9mv+nDrtfYuE8=</li>\\\\n</ul>\\\\n<hr/>\\\\n</body>\\\\n</html>\\\\n\"' ]","timestamp":"2018-10-30T22:50:59.711Z"}
{"moduleName":"Auth:NetworkFSM","level":"info","message":"[ 'up --> down' ]","timestamp":"2018-10-30T22:51:28.564Z"}
{"moduleName":"Auth:NetworkFSM","level":"info","message":"[ 'down --> up' ]","timestamp":"2018-10-30T22:51:28.634Z"}
{"moduleName":"Auth","level":"info","message":"[ 'Both tokens are expired, user will be logged out' ]","timestamp":"2018-10-30T22:51:28.715Z"}
{"moduleName":"Auth","level":"info","message":"[ 'Successfully logged out' ]","timestamp":"2018-10-30T22:51:28.725Z"}
{"moduleName":"AutoUpdater:EventHandler","level":"info","message":"[ 'Checking for update' ]","timestamp":"2018-10-30T22:51:28.727Z"}
{"moduleName":"AutoUpdater:EventHandler","level":"info","message":"[ 'No update available' ]","timestamp":"2018-10-30T22:51:28.815Z"}
{"moduleName":"LocalConfig","level":"info","message":"[ 'Failed to refresh data, fallback to default data. Reason: 404 - \"<html>\\\\n<head><title>404 Not Found</title></head>\\\\n<body>\\\\n<h1>404 Not Found</h1>\\\\n<ul>\\\\n<li>Code: NoSuchKey</li>\\\\n<li>Message: The specified key does not exist.</li>\\\\n<li>Key: hub/prod/hubConfig.json</li>\\\\n<li>RequestId: 95B82D7DBB90F35B</li>\\\\n<li>HostId: nJIKvsPolec8Mp5TAUhPXtmWcdPwKhVwYaGvqzOgVdJeeNIlBhhOKDm0kp9TAODQfoxkFDIJOME=</li>\\\\n</ul>\\\\n<hr/>\\\\n</body>\\\\n</html>\\\\n\"' ]","timestamp":"2018-10-30T22:51:29.163Z"}
{"moduleName":"Auth:NetworkFSM","level":"info","message":"[ 'up --> down' ]","timestamp":"2018-10-30T22:51:42.566Z"}
{"moduleName":"Auth:NetworkFSM","level":"info","message":"[ 'down --> up' ]","timestamp":"2018-10-30T22:51:42.647Z"}
{"moduleName":"Auth","level":"info","message":"[ 'Both tokens are expired, user will be logged out' ]","timestamp":"2018-10-30T22:51:42.741Z"}
{"moduleName":"Auth","level":"info","message":"[ 'Successfully logged out' ]","timestamp":"2018-10-30T22:51:42.749Z"}
{"moduleName":"AutoUpdater:EventHandler","level":"info","message":"[ 'Checking for update' ]","timestamp":"2018-10-30T22:51:42.751Z"}
{"moduleName":"AutoUpdater:EventHandler","level":"info","message":"[ 'No update available' ]","timestamp":"2018-10-30T22:51:42.834Z"}
{"moduleName":"LocalConfig","level":"info","message":"[ 'Failed to refresh data, fallback to default data. Reason: 404 - \"<html>\\\\n<head><title>404 Not Found</title></head>\\\\n<body>\\\\n<h1>404 Not Found</h1>\\\\n<ul>\\\\n<li>Code: NoSuchKey</li>\\\\n<li>Message: The specified key does not exist.</li>\\\\n<li>Key: hub/prod/hubConfig.json</li>\\\\n<li>RequestId: 83000B18EA1C5534</li>\\\\n<li>HostId: cyGX75eVk1kk+xpsnhSA2zMSATaJ9ljIUiS03Imi1a84l5GSobekwEjGz/eWh25G2+8XcNFdVL0=</li>\\\\n</ul>\\\\n<hr/>\\\\n</body>\\\\n</html>\\\\n\"' ]","timestamp":"2018-10-30T22:51:43.231Z"}
{"moduleName":"Auth:NetworkFSM","level":"info","message":"[ 'up --> down' ]","timestamp":"2018-10-30T22:52:46.567Z"}
{"moduleName":"Auth:NetworkFSM","level":"info","message":"[ 'down --> up' ]","timestamp":"2018-10-30T22:52:46.681Z"}
{"moduleName":"Auth","level":"info","message":"[ 'Both tokens are expired, user will be logged out' ]","timestamp":"2018-10-30T22:52:46.775Z"}
{"moduleName":"Auth","level":"info","message":"[ 'Successfully logged out' ]","timestamp":"2018-10-30T22:52:46.785Z"}
{"moduleName":"AutoUpdater:EventHandler","level":"info","message":"[ 'Checking for update' ]","timestamp":"2018-10-30T22:52:46.787Z"}
{"moduleName":"AutoUpdater:EventHandler","level":"info","message":"[ 'No update available' ]","timestamp":"2018-10-30T22:52:46.876Z"}
{"moduleName":"LocalConfig","level":"info","message":"[ 'Failed to refresh data, fallback to default data. Reason: 404 - \"<html>\\\\n<head><title>404 Not Found</title></head>\\\\n<body>\\\\n<h1>404 Not Found</h1>\\\\n<ul>\\\\n<li>Code: NoSuchKey</li>\\\\n<li>Message: The specified key does not exist.</li>\\\\n<li>Key: hub/prod/hubConfig.json</li>\\\\n<li>RequestId: E58A6722146995FB</li>\\\\n<li>HostId: Sq77tsTLJZU2Ib12HhYsfBVi9nqwtA+ugHkH5DzDkrOCElDBAP5Xhaljhf0UST9yjwATfoODlYY=</li>\\\\n</ul>\\\\n<hr/>\\\\n</body>\\\\n</html>\\\\n\"' ]","timestamp":"2018-10-30T22:52:47.221Z"}
{"moduleName":"DownloadManager","level":"info","message":"[ 'download ended with status: 3 /tmp/unityhub-17044100-dc96-11e8-ac8d-d3312ab38de3/Documentation.pkg' ]","timestamp":"2018-10-30T22:53:39.485Z"}
{"moduleName":"DownloadManager","level":"info","message":"[ 'download ended with status: 3 /tmp/unityhub-17044100-dc96-11e8-ac8d-d3312ab38de3/StandardAssets.pkg' ]","timestamp":"2018-10-30T22:54:38.898Z"}
{"moduleName":"DownloadsCluster","level":"info","message":"[ 'Cluster 2017.4.14f1: Finished' ]","timestamp":"2018-10-30T22:54:48.238Z"}
{"moduleName":"DownloadManager","level":"info","message":"[ 'download ended with status: 3 /tmp/unityhub-17044100-dc96-11e8-ac8d-d3312ab38de3/Examples.pkg' ]","timestamp":"2018-10-30T22:54:48.240Z"}
{"moduleName":"Download","level":"info","message":"[ 'Components download ended successfully. Download id: 2017.4.14f1' ]","timestamp":"2018-10-30T22:54:50.716Z"}
{"moduleName":"Installer","level":"info","message":"[ 'Install modules for the Editor 2017.4.14f1' ]","timestamp":"2018-10-30T22:54:50.717Z"}
{"moduleName":"Installer:ReleaseFileIO","level":"info","message":"[ 'write /home/partnerus/Unity/Hub/Editor/2017.4.14f1/modules.json' ]","timestamp":"2018-10-30T22:55:02.042Z"}
{"moduleName":"Installer:ReleaseFileIO","level":"info","message":"[ 'read /home/partnerus/Unity/Hub/Editor/2017.4.14f1/modules.json' ]","timestamp":"2018-10-30T22:55:02.073Z"}
{"moduleName":"PackageFinder","level":"warn","message":"[ { Error: ENOENT: no such file or directory, scandir '/home/partnerus/.local/share/unity3d/Asset Store-5.x'\n    errno: -2,\n    code: 'ENOENT',\n    syscall: 'scandir',\n    path: '/home/partnerus/.local/share/unity3d/Asset Store-5.x' } ]","timestamp":"2018-10-30T23:00:00.945Z"}
{"moduleName":"PackageFinder","level":"warn","message":"[ { Error: ENOENT: no such file or directory, scandir '/home/partnerus/.local/share/unity3d/Asset Store-5.x'\n    errno: -2,\n    code: 'ENOENT',\n    syscall: 'scandir',\n    path: '/home/partnerus/.local/share/unity3d/Asset Store-5.x' } ]","timestamp":"2018-10-30T23:00:00.951Z"}
{"moduleName":"LocalProject","level":"info","message":"[ 'createProject projectPath: /home/partnerus/TEMP3D, app.editors.current: undefined' ]","timestamp":"2018-10-30T23:00:23.163Z"}
{"moduleName":"RestEvent:Project","level":"info","message":"[ 'onProjectCreate data: ',\n  { projectName: 'TEMP3D',\n    projectDirectory: '/home/partnerus',\n    projectType: 0,\n    selectedPackages: [],\n    defaultScene: '',\n    organizationId: '' } ]","timestamp":"2018-10-30T23:00:23.164Z"}
{"moduleName":"LaunchProcess","level":"info","message":"[ 'Process stderr: Xlib:  extension \"RANDR\" missing on display \":0\".\\n' ]","timestamp":"2018-10-30T23:00:23.328Z"}
{"moduleName":"RestController:Health","level":"info","message":"[ 'show params: [object Object]' ]","timestamp":"2018-10-30T23:00:36.657Z"}
{"moduleName":"WebSocketService","level":"info","message":"[ 'incoming connection with session_id 4582' ]","timestamp":"2018-10-30T23:00:36.682Z"}
{"moduleName":"LaunchProcess","level":"info","message":"[ 'child process exited with code 0' ]","timestamp":"2018-10-30T23:26:27.314Z"}
